Current imputed country is Rwanda
Current imputation round is 1/5
[IterativeImputer] Completing matrix with shape (40430, 120)
[IterativeImputer] Completing matrix with shape (10108, 120)
[IterativeImputer] Completing matrix with shape (4613, 120)
[IterativeImputer] Completing matrix with shape (51742, 164)
[IterativeImputer] Completing matrix with shape (12936, 164)
[IterativeImputer] Completing matrix with shape (4948, 164)
Current imputed country is Rwanda
Current imputation round is 2/5
[IterativeImputer] Completing matrix with shape (40430, 120)
[IterativeImputer] Completing matrix with shape (10108, 120)
[IterativeImputer] Completing matrix with shape (4613, 120)
[IterativeImputer] Completing matrix with shape (51742, 164)
[IterativeImputer] Completing matrix with shape (12936, 164)
[IterativeImputer] Completing matrix with shape (4948, 164)
Current imputed country is Rwanda
Current imputation round is 3/5
[IterativeImputer] Completing matrix with shape (40430, 120)
[IterativeImputer] Completing matrix with shape (10108, 120)
[IterativeImputer] Completing matrix with shape (4613, 120)
[IterativeImputer] Completing matrix with shape (51742, 164)
[IterativeImputer] Completing matrix with shape (12936, 164)
[IterativeImputer] Completing matrix with shape (4948, 164)
Current imputed country is Rwanda
Current imputation round is 4/5
[IterativeImputer] Completing matrix with shape (40430, 120)
[IterativeImputer] Completing matrix with shape (10108, 120)
[IterativeImputer] Completing matrix with shape (4613, 120)
[IterativeImputer] Completing matrix with shape (51742, 164)
[IterativeImputer] Completing matrix with shape (12936, 164)
[IterativeImputer] Completing matrix with shape (4948, 164)
Current imputed country is Rwanda
Current imputation round is 5/5
[IterativeImputer] Completing matrix with shape (40430, 120)
[IterativeImputer] Completing matrix with shape (10108, 120)
[IterativeImputer] Completing matrix with shape (4613, 120)
[IterativeImputer] Completing matrix with shape (51742, 164)
[IterativeImputer] Completing matrix with shape (12936, 164)
[IterativeImputer] Completing matrix with shape (4948, 164)
