000 (6273250.000.000) 10/20 11:43:18 Job submitted from host: <188.185.71.142:9618?addrs=188.185.71.142-9618+[2001-1458-d00-7--100-388]-9618&alias=bigbird09.cern.ch&noUDP&sock=schedd_1971_8541_21>
...
040 (6273250.000.000) 10/20 11:54:58 Started transferring input files
	Transferring to host: <188.184.183.8:9618?addrs=188.184.183.8-9618+[2001-1458-301-2b--100-376]-9618&noUDP&sock=8619_9d78_84167>
...
040 (6273250.000.000) 10/20 11:55:59 Finished transferring input files
...
001 (6273250.000.000) 10/20 11:56:00 Job executing on host: <188.184.183.8:9618?addrs=188.184.183.8-9618+[2001-1458-301-2b--100-376]-9618&noUDP&sock=6624_176d_3>
...
006 (6273250.000.000) 10/20 11:56:09 Image size of job updated: 1356
	2  -  MemoryUsage of job (MB)
	1356  -  ResidentSetSize of job (KB)
...
006 (6273250.000.000) 10/20 12:01:10 Image size of job updated: 3475100
	2214  -  MemoryUsage of job (MB)
	2266568  -  ResidentSetSize of job (KB)
...
006 (6273250.000.000) 10/20 12:11:10 Image size of job updated: 3496196
	2214  -  MemoryUsage of job (MB)
	2266568  -  ResidentSetSize of job (KB)
...
006 (6273250.000.000) 10/20 12:16:10 Image size of job updated: 3528696
	2214  -  MemoryUsage of job (MB)
	2266568  -  ResidentSetSize of job (KB)
...
006 (6273250.000.000) 10/20 12:21:10 Image size of job updated: 3534680
	2214  -  MemoryUsage of job (MB)
	2266568  -  ResidentSetSize of job (KB)
...
006 (6273250.000.000) 10/20 12:31:10 Image size of job updated: 3558804
	2214  -  MemoryUsage of job (MB)
	2266568  -  ResidentSetSize of job (KB)
...
006 (6273250.000.000) 10/20 12:41:11 Image size of job updated: 3771788
	2214  -  MemoryUsage of job (MB)
	2266568  -  ResidentSetSize of job (KB)
...
006 (6273250.000.000) 10/20 12:46:12 Image size of job updated: 3841300
	2214  -  MemoryUsage of job (MB)
	2266568  -  ResidentSetSize of job (KB)
...
006 (6273250.000.000) 10/20 13:06:16 Image size of job updated: 3869100
	2214  -  MemoryUsage of job (MB)
	2266568  -  ResidentSetSize of job (KB)
...
006 (6273250.000.000) 10/20 13:11:17 Image size of job updated: 3911000
	2214  -  MemoryUsage of job (MB)
	2266568  -  ResidentSetSize of job (KB)
...
006 (6273250.000.000) 10/20 13:21:18 Image size of job updated: 3945496
	2214  -  MemoryUsage of job (MB)
	2266568  -  ResidentSetSize of job (KB)
...
006 (6273250.000.000) 10/20 13:36:19 Image size of job updated: 3951360
	2214  -  MemoryUsage of job (MB)
	2266568  -  ResidentSetSize of job (KB)
...
006 (6273250.000.000) 10/20 13:41:19 Image size of job updated: 3992212
	2214  -  MemoryUsage of job (MB)
	2266568  -  ResidentSetSize of job (KB)
...
006 (6273250.000.000) 10/20 14:21:20 Image size of job updated: 3996372
	2214  -  MemoryUsage of job (MB)
	2266568  -  ResidentSetSize of job (KB)
...
006 (6273250.000.000) 10/20 14:26:21 Image size of job updated: 4031168
	2214  -  MemoryUsage of job (MB)
	2266568  -  ResidentSetSize of job (KB)
...
006 (6273250.000.000) 10/20 14:36:23 Image size of job updated: 4033736
	2214  -  MemoryUsage of job (MB)
	2266568  -  ResidentSetSize of job (KB)
...
006 (6273250.000.000) 10/20 14:46:25 Image size of job updated: 4173940
	2214  -  MemoryUsage of job (MB)
	2266568  -  ResidentSetSize of job (KB)
...
006 (6273250.000.000) 10/20 15:31:32 Image size of job updated: 4238388
	2214  -  MemoryUsage of job (MB)
	2266568  -  ResidentSetSize of job (KB)
...
006 (6273250.000.000) 10/20 16:06:39 Image size of job updated: 4243612
	2214  -  MemoryUsage of job (MB)
	2266568  -  ResidentSetSize of job (KB)
...
006 (6273250.000.000) 10/20 17:06:50 Image size of job updated: 4340768
	2214  -  MemoryUsage of job (MB)
	2266568  -  ResidentSetSize of job (KB)
...
006 (6273250.000.000) 10/20 17:11:51 Image size of job updated: 4409972
	2214  -  MemoryUsage of job (MB)
	2266568  -  ResidentSetSize of job (KB)
...
006 (6273250.000.000) 10/20 19:17:05 Image size of job updated: 4560992
	2214  -  MemoryUsage of job (MB)
	2266568  -  ResidentSetSize of job (KB)
...
006 (6273250.000.000) 10/20 19:52:11 Image size of job updated: 4576504
	2214  -  MemoryUsage of job (MB)
	2266568  -  ResidentSetSize of job (KB)
...
006 (6273250.000.000) 10/20 20:07:14 Image size of job updated: 4578056
	2214  -  MemoryUsage of job (MB)
	2266568  -  ResidentSetSize of job (KB)
...
006 (6273250.000.000) 10/20 21:27:23 Image size of job updated: 4696096
	2214  -  MemoryUsage of job (MB)
	2266568  -  ResidentSetSize of job (KB)
...
006 (6273250.000.000) 10/20 21:37:25 Image size of job updated: 4712632
	2214  -  MemoryUsage of job (MB)
	2266568  -  ResidentSetSize of job (KB)
...
040 (6273250.000.000) 10/20 22:55:19 Started transferring output files
...
040 (6273250.000.000) 10/20 22:55:38 Finished transferring output files
...
005 (6273250.000.000) 10/20 22:55:38 Job terminated.
	(1) Normal termination (return value 0)
		Usr 0 09:58:26, Sys 0 00:52:22  -  Run Remote Usage
		Usr 0 00:00:00, Sys 0 00:00:00  -  Run Local Usage
		Usr 0 09:58:26, Sys 0 00:52:22  -  Total Remote Usage
		Usr 0 00:00:00, Sys 0 00:00:00  -  Total Local Usage
	144335392  -  Run Bytes Sent By Job
	568467264  -  Run Bytes Received By Job
	144335392  -  Total Bytes Sent By Job
	568467264  -  Total Bytes Received By Job
	Partitionable Resources :      Usage  Request Allocated 
	   Cpus                 :       1.00        1         1 
	   Disk (KB)            : 2914734      750000   1067357 
	   Memory (MB)          :    2214        2000      2000 
...
